%YAML 1.1
%TAG !u! tag:unity3d.com,2011:
--- !u!29 &1
OcclusionCullingSettings:
  m_ObjectHideFlags: 0
  serializedVersion: 2
  m_OcclusionBakeSettings:
    smallestOccluder: 5
    smallestHole: 0.25
    backfaceThreshold: 100
  m_SceneGUID: 00000000000000000000000000000000
  m_OcclusionCullingData: {fileID: 0}
--- !u!104 &2
RenderSettings:
  m_ObjectHideFlags: 0
  serializedVersion: 9
  m_Fog: 0
  m_FogColor: {r: 0.5, g: 0.5, b: 0.5, a: 1}
  m_FogMode: 3
  m_FogDensity: 0.01
  m_LinearFogStart: 0
  m_LinearFogEnd: 300
  m_AmbientSkyColor: {r: 0.212, g: 0.227, b: 0.259, a: 1}
  m_AmbientEquatorColor: {r: 0.114, g: 0.125, b: 0.133, a: 1}
  m_AmbientGroundColor: {r: 0.047, g: 0.043, b: 0.035, a: 1}
  m_AmbientIntensity: 1
  m_AmbientMode: 3
  m_SubtractiveShadowColor: {r: 0.42, g: 0.478, b: 0.627, a: 1}
  m_SkyboxMaterial: {fileID: 0}
  m_HaloStrength: 0.5
  m_FlareStrength: 1
  m_FlareFadeSpeed: 3
  m_HaloTexture: {fileID: 0}
  m_SpotCookie: {fileID: 10001, guid: 0000000000000000e000000000000000, type: 0}
  m_DefaultReflectionMode: 0
  m_DefaultReflectionResolution: 128
  m_ReflectionBounces: 1
  m_ReflectionIntensity: 1
  m_CustomReflection: {fileID: 0}
  m_Sun: {fileID: 0}
  m_IndirectSpecularColor: {r: 0, g: 0, b: 0, a: 1}
  m_UseRadianceAmbientProbe: 0
--- !u!157 &3
LightmapSettings:
  m_ObjectHideFlags: 0
  serializedVersion: 12
  m_GIWorkflowMode: 1
  m_GISettings:
    serializedVersion: 2
    m_BounceScale: 1
    m_IndirectOutputScale: 1
    m_AlbedoBoost: 1
    m_EnvironmentLightingMode: 0
    m_EnableBakedLightmaps: 0
    m_EnableRealtimeLightmaps: 0
  m_LightmapEditorSettings:
    serializedVersion: 12
    m_Resolution: 2
    m_BakeResolution: 40
    m_AtlasSize: 1024
    m_AO: 0
    m_AOMaxDistance: 1
    m_CompAOExponent: 1
    m_CompAOExponentDirect: 0
    m_ExtractAmbientOcclusion: 0
    m_Padding: 2
    m_LightmapParameters: {fileID: 0}
    m_LightmapsBakeMode: 1
    m_TextureCompression: 1
    m_FinalGather: 0
    m_FinalGatherFiltering: 1
    m_FinalGatherRayCount: 256
    m_ReflectionCompression: 2
    m_MixedBakeMode: 2
    m_BakeBackend: 1
    m_PVRSampling: 1
    m_PVRDirectSampleCount: 32
    m_PVRSampleCount: 512
    m_PVRBounces: 2
    m_PVREnvironmentSampleCount: 256
    m_PVREnvironmentReferencePointCount: 2048
    m_PVRFilteringMode: 1
    m_PVRDenoiserTypeDirect: 1
    m_PVRDenoiserTypeIndirect: 1
    m_PVRDenoiserTypeAO: 1
    m_PVRFilterTypeDirect: 0
    m_PVRFilterTypeIndirect: 0
    m_PVRFilterTypeAO: 0
    m_PVREnvironmentMIS: 1
    m_PVRCulling: 1
    m_PVRFilteringGaussRadiusDirect: 1
    m_PVRFilteringGaussRadiusIndirect: 5
    m_PVRFilteringGaussRadiusAO: 2
    m_PVRFilteringAtrousPositionSigmaDirect: 0.5
    m_PVRFilteringAtrousPositionSigmaIndirect: 2
    m_PVRFilteringAtrousPositionSigmaAO: 1
    m_ExportTrainingData: 0
    m_TrainingDataDestination: TrainingData
    m_LightProbeSampleCountMultiplier: 4
  m_LightingDataAsset: {fileID: 0}
  m_LightingSettings: {fileID: 0}
--- !u!196 &4
NavMeshSettings:
  serializedVersion: 2
  m_ObjectHideFlags: 0
  m_BuildSettings:
    serializedVersion: 2
    agentTypeID: 0
    agentRadius: 0.5
    agentHeight: 2
    agentSlope: 45
    agentClimb: 0.4
    ledgeDropHeight: 0
    maxJumpAcrossDistance: 0
    minRegionArea: 2
    manualCellSize: 0
    cellSize: 0.16666667
    manualTileSize: 0
    tileSize: 256
    accuratePlacement: 0
    maxJobWorkers: 0
    preserveTilesOutsideBounds: 0
    debug:
      m_Flags: 0
  m_NavMeshData: {fileID: 0}
--- !u!1001 &1895831406
PrefabInstance:
  m_ObjectHideFlags: 0
  serializedVersion: 2
  m_Modification:
    m_TransformParent: {fileID: 0}
    m_Modifications:
    - target: {fileID: 910698615127021537, guid: 6bd6fa6925c7c19439a3413062fdf8cb, type: 3}
      propertyPath: m_TargetGraphic
      value: 
      objectReference: {fileID: 0}
    - target: {fileID: 910698615127021537, guid: 6bd6fa6925c7c19439a3413062fdf8cb, type: 3}
      propertyPath: m_OnClick.m_PersistentCalls.m_Calls.Array.data[0].m_Target
      value: 
      objectReference: {fileID: 1895831408}
    - target: {fileID: 910698615127021537, guid: 6bd6fa6925c7c19439a3413062fdf8cb, type: 3}
      propertyPath: m_OnClick.m_PersistentCalls.m_Calls.Array.data[0].m_CallState
      value: 2
      objectReference: {fileID: 0}
    - target: {fileID: 910698615127021537, guid: 6bd6fa6925c7c19439a3413062fdf8cb, type: 3}
      propertyPath: m_OnClick.m_PersistentCalls.m_Calls.Array.data[0].m_MethodName
      value: OnButtonPress
      objectReference: {fileID: 0}
    - target: {fileID: 4525105521185194476, guid: 6bd6fa6925c7c19439a3413062fdf8cb, type: 3}
      propertyPath: m_TargetGraphic
      value: 
      objectReference: {fileID: 0}
    - target: {fileID: 4525105521185194476, guid: 6bd6fa6925c7c19439a3413062fdf8cb, type: 3}
      propertyPath: m_OnClick.m_PersistentCalls.m_Calls.Array.data[0].m_Target
      value: 
      objectReference: {fileID: 1895831407}
    - target: {fileID: 4525105521185194476, guid: 6bd6fa6925c7c19439a3413062fdf8cb, type: 3}
      propertyPath: m_OnClick.m_PersistentCalls.m_Calls.Array.data[0].m_MethodName
      value: OnButtonPress
      objectReference: {fileID: 0}
    - target: {fileID: 4525105522201464757, guid: 6bd6fa6925c7c19439a3413062fdf8cb, type: 3}
      propertyPath: m_AnchoredPosition.x
      value: -9.5
      objectReference: {fileID: 0}
    - target: {fileID: 4525105522201464757, guid: 6bd6fa6925c7c19439a3413062fdf8cb, type: 3}
      propertyPath: m_AnchoredPosition.y
      value: -37.1
      objectReference: {fileID: 0}
    - target: {fileID: 5866746041223947332, guid: 6bd6fa6925c7c19439a3413062fdf8cb, type: 3}
      propertyPath: m_RootOrder
      value: 0
      objectReference: {fileID: 0}
    - target: {fileID: 5866746041223947332, guid: 6bd6fa6925c7c19439a3413062fdf8cb, type: 3}
      propertyPath: m_LocalPosition.x
      value: 8.927009
      objectReference: {fileID: 0}
    - target: {fileID: 5866746041223947332, guid: 6bd6fa6925c7c19439a3413062fdf8cb, type: 3}
      propertyPath: m_LocalPosition.y
      value: -1.3962765
      objectReference: {fileID: 0}
    - target: {fileID: 5866746041223947332, guid: 6bd6fa6925c7c19439a3413062fdf8cb, type: 3}
      propertyPath: m_LocalPosition.z
      value: -0.09352727
      objectReference: {fileID: 0}
    - target: {fileID: 5866746041223947332, guid: 6bd6fa6925c7c19439a3413062fdf8cb, type: 3}
      propertyPath: m_LocalRotation.w
      value: 1
      objectReference: {fileID: 0}
    - target: {fileID: 5866746041223947332, guid: 6bd6fa6925c7c19439a3413062fdf8cb, type: 3}
      propertyPath: m_LocalRotation.x
      value: 0
      objectReference: {fileID: 0}
    - target: {fileID: 5866746041223947332, guid: 6bd6fa6925c7c19439a3413062fdf8cb, type: 3}
      propertyPath: m_LocalRotation.y
      value: 0
      objectReference: {fileID: 0}
    - target: {fileID: 5866746041223947332, guid: 6bd6fa6925c7c19439a3413062fdf8cb, type: 3}
      propertyPath: m_LocalRotation.z
      value: 0
      objectReference: {fileID: 0}
    - target: {fileID: 5866746041223947332, guid: 6bd6fa6925c7c19439a3413062fdf8cb, type: 3}
      propertyPath: m_LocalEulerAnglesHint.x
      value: 0
      objectReference: {fileID: 0}
    - target: {fileID: 5866746041223947332, guid: 6bd6fa6925c7c19439a3413062fdf8cb, type: 3}
      propertyPath: m_LocalEulerAnglesHint.y
      value: 0
      objectReference: {fileID: 0}
    - target: {fileID: 5866746041223947332, guid: 6bd6fa6925c7c19439a3413062fdf8cb, type: 3}
      propertyPath: m_LocalEulerAnglesHint.z
      value: 0
      objectReference: {fileID: 0}
    - target: {fileID: 5866746041223947333, guid: 6bd6fa6925c7c19439a3413062fdf8cb, type: 3}
      propertyPath: m_Name
      value: Finish Interface
      objectReference: {fileID: 0}
    - target: {fileID: 6072067521177977955, guid: 6bd6fa6925c7c19439a3413062fdf8cb, type: 3}
      propertyPath: m_CullTransparentMesh
      value: 1
      objectReference: {fileID: 0}
    - target: {fileID: 6869763197512284561, guid: 6bd6fa6925c7c19439a3413062fdf8cb, type: 3}
      propertyPath: m_fontAsset
      value: 
      objectReference: {fileID: 11400000, guid: 76744dc7e1ac0134c86386a7a490ab7b, type: 2}
    - target: {fileID: 6869763197512284561, guid: 6bd6fa6925c7c19439a3413062fdf8cb, type: 3}
      propertyPath: m_fontStyle
      value: 33
      objectReference: {fileID: 0}
    - target: {fileID: 6869763197512284561, guid: 6bd6fa6925c7c19439a3413062fdf8cb, type: 3}
      propertyPath: m_sharedMaterial
      value: 
      objectReference: {fileID: 357571751603506363, guid: 76744dc7e1ac0134c86386a7a490ab7b, type: 2}
    - target: {fileID: 8455382420855152053, guid: 6bd6fa6925c7c19439a3413062fdf8cb, type: 3}
      propertyPath: m_AnchoredPosition.x
      value: 20.447998
      objectReference: {fileID: 0}
    m_RemovedComponents: []
  m_SourcePrefab: {fileID: 100100000, guid: 6bd6fa6925c7c19439a3413062fdf8cb, type: 3}
--- !u!114 &1895831407 stripped
MonoBehaviour:
  m_CorrespondingSourceObject: {fileID: 5701965746647450819, guid: 6bd6fa6925c7c19439a3413062fdf8cb, type: 3}
  m_PrefabInstance: {fileID: 1895831406}
  m_PrefabAsset: {fileID: 0}
  m_GameObject: {fileID: 0}
  m_Enabled: 1
  m_EditorHideFlags: 0
  m_Script: {fileID: 11500000, guid: 88a7b507efbdfa84db50c4125a426616, type: 3}
  m_Name: 
  m_EditorClassIdentifier: 
--- !u!114 &1895831408 stripped
MonoBehaviour:
  m_CorrespondingSourceObject: {fileID: 4525105522339893705, guid: 6bd6fa6925c7c19439a3413062fdf8cb, type: 3}
  m_PrefabInstance: {fileID: 1895831406}
  m_PrefabAsset: {fileID: 0}
  m_GameObject: {fileID: 0}
  m_Enabled: 1
  m_EditorHideFlags: 0
  m_Script: {fileID: 11500000, guid: 3ec186d0f20358e4083ac138d98850ec, type: 3}
  m_Name: 
  m_EditorClassIdentifier: 
